%YAML 1.1
%TAG !u! tag:unity3d.com,2011:
--- !u!114 &11400000
MonoBehaviour:
  m_ObjectHideFlags: 0
  m_PrefabParentObject: {fileID: 0}
  m_PrefabInternal: {fileID: 0}
  m_GameObject: {fileID: 0}
  m_Enabled: 1
  m_EditorHideFlags: 0
  m_Script: {fileID: 11500000, guid: af65ee6b0f35f974dba93979a07edbce, type: 3}
  m_Name: First, open the widget list by tapping the icon
  m_EditorClassIdentifier: 
  m_LocaleItems:
  - m_Language: 10
    m_Value: First, open the widget list by tapping the icon
  - m_Language: 6
    m_Value: "\u9996\u5148\uFF0C\u70B9\u51FB\u76F8\u5E94\u56FE\u6807\u6253\u5F00\u7A97\u53E3\u90E8\u4EF6\u5217\u8868"
