%YAML 1.1
%TAG !u! tag:unity3d.com,2011:
--- !u!114 &11400000
MonoBehaviour:
  m_ObjectHideFlags: 0
  m_PrefabParentObject: {fileID: 0}
  m_PrefabInternal: {fileID: 0}
  m_GameObject: {fileID: 0}
  m_Enabled: 1
  m_EditorHideFlags: 0
  m_Script: {fileID: 11500000, guid: af65ee6b0f35f974dba93979a07edbce, type: 3}
  m_Name: "To start a call, just tap on the green phone icon next to the contact\u2019s
    name."
  m_EditorClassIdentifier: 
  m_LocaleItems:
  - m_Language: 10
    m_Value: "To start a call, just tap on the green phone icon next to the contact\u2019s
      name."
  - m_Language: 6
    m_Value: "\u9700\u8981\u5F00\u59CB\u54A8\u8BE2\uFF0C\u53EA\u9700\u8981\u70B9\u51FB\u4E13\u5BB6\u8FB9\u4E0A\u7684\u7EFF\u8272\u7684\u7535\u8BDD\u6309\u94AE\u3002"
