%YAML 1.1
%TAG !u! tag:unity3d.com,2011:
--- !u!114 &11400000
MonoBehaviour:
  m_ObjectHideFlags: 0
  m_PrefabParentObject: {fileID: 0}
  m_PrefabInternal: {fileID: 0}
  m_GameObject: {fileID: 0}
  m_Enabled: 1
  m_EditorHideFlags: 0
  m_Script: {fileID: 11500000, guid: af65ee6b0f35f974dba93979a07edbce, type: 3}
  m_Name: "Now select the desired widget\u2019s colour"
  m_EditorClassIdentifier: 
  m_LocaleItems:
  - m_Language: 10
    m_Value: "Now select the desired widget\u2019s colour"
  - m_Language: 6
    m_Value: "\u73B0\u5728\u9009\u62E9\u6240\u9700\u8981\u7684\u7A97\u53E3\u90E8\u4EF6\u989C\u8272"
